%YAML 1.1
%TAG !u! tag:unity3d.com,2011:
--- !u!74 &7400000
AnimationClip:
  m_ObjectHideFlags: 0
  m_PrefabParentObject: {fileID: 0}
  m_PrefabInternal: {fileID: 0}
  m_Name: Moonlock Idle Reversed
  serializedVersion: 6
  m_Legacy: 0
  m_Compressed: 0
  m_UseHighQualityCurve: 1
  m_RotationCurves: []
  m_CompressedRotationCurves: []
  m_EulerCurves: []
  m_PositionCurves:
  - curve:
      serializedVersion: 2
      m_Curve:
      - serializedVersion: 2
        time: 0
        value: {x: -0.0074418546, y: 0, z: 0}
        inSlope: {x: -30.935663, y: -1.4761457, z: 0}
        outSlope: {x: -30.935663, y: -1.4761457, z: 0}
        tangentMode: 0
      - serializedVersion: 2
        time: 0.33333334
        value: {x: -5.007442, y: -5, z: 0}
        inSlope: {x: 0, y: -15, z: 0}
        outSlope: {x: 0, y: -15, z: 0}
        tangentMode: 0
      - serializedVersion: 2
        time: 0.6666667
        value: {x: -0.0074418546, y: -10, z: 0}
        inSlope: {x: 15.000001, y: -0.049887426, z: 0}
        outSlope: {x: 15.000001, y: -0.049887426, z: 0}
        tangentMode: 0
      - serializedVersion: 2
        time: 1
        value: {x: 4.992558, y: -5, z: 0}
        inSlope: {x: 0, y: 25.949999, z: 0}
        outSlope: {x: 0, y: 25.949999, z: 0}
        tangentMode: 0
      - serializedVersion: 2
        time: 1.3333334
        value: {x: -0.0031105578, y: 0, z: 0}
        inSlope: {x: -34.087593, y: 0, z: 0}
        outSlope: {x: -34.087593, y: 0, z: 0}
        tangentMode: 0
      m_PreInfinity: 2
      m_PostInfinity: 2
      m_RotationOrder: 4
    path: 
  m_ScaleCurves: []
  m_FloatCurves: []
  m_PPtrCurves: []
  m_SampleRate: 60
  m_WrapMode: 0
  m_Bounds:
    m_Center: {x: 0, y: 0, z: 0}
    m_Extent: {x: 0, y: 0, z: 0}
  m_ClipBindingConstant:
    genericBindings:
    - serializedVersion: 2
      path: 0
      attribute: 1
      script: {fileID: 0}
      typeID: 4
      customType: 0
      isPPtrCurve: 0
    pptrCurveMapping: []
  m_AnimationClipSettings:
    serializedVersion: 2
    m_AdditiveReferencePoseClip: {fileID: 0}
    m_AdditiveReferencePoseTime: 0
    m_StartTime: 0
    m_StopTime: 1.3333334
    m_OrientationOffsetY: 0
    m_Level: 0
    m_CycleOffset: 0
    m_HasAdditiveReferencePose: 0
    m_LoopTime: 1
    m_LoopBlend: 0
    m_LoopBlendOrientation: 0
    m_LoopBlendPositionY: 0
    m_LoopBlendPositionXZ: 0
    m_KeepOriginalOrientation: 0
    m_KeepOriginalPositionY: 1
    m_KeepOriginalPositionXZ: 0
    m_HeightFromFeet: 0
    m_Mirror: 0
  m_EditorCurves:
  - curve:
      serializedVersion: 2
      m_Curve:
      - serializedVersion: 2
        time: 0
        value: -0.0074418546
        inSlope: -30.935663
        outSlope: -30.935663
        tangentMode: 0
      - serializedVersion: 2
        time: 0.33333334
        value: -5.007442
        inSlope: 0
        outSlope: 0
        tangentMode: 136
      - serializedVersion: 2
        time: 0.6666667
        value: -0.0074418546
        inSlope: 15.000001
        outSlope: 15.000001
        tangentMode: 136
      - serializedVersion: 2
        time: 1
        value: 4.992558
        inSlope: 0
        outSlope: 0
        tangentMode: 136
      - serializedVersion: 2
        time: 1.3333334
        value: -0.0031105578
        inSlope: -34.087593
        outSlope: -34.087593
        tangentMode: 0
      m_PreInfinity: 2
      m_PostInfinity: 2
      m_RotationOrder: 4
    attribute: m_LocalPosition.x
    path: 
    classID: 4
    script: {fileID: 0}
  - curve:
      serializedVersion: 2
      m_Curve:
      - serializedVersion: 2
        time: 0
        value: 0
        inSlope: -1.4761457
        outSlope: -1.4761457
        tangentMode: 0
      - serializedVersion: 2
        time: 0.33333334
        value: -5
        inSlope: -15
        outSlope: -15
        tangentMode: 136
      - serializedVersion: 2
        time: 0.6666667
        value: -10
        inSlope: -0.049887426
        outSlope: -0.049887426
        tangentMode: 0
      - serializedVersion: 2
        time: 1
        value: -5
        inSlope: 25.949999
        outSlope: 25.949999
        tangentMode: 0
      - serializedVersion: 2
        time: 1.3333334
        value: 0
        inSlope: 0
        outSlope: 0
        tangentMode: 0
      m_PreInfinity: 2
      m_PostInfinity: 2
      m_RotationOrder: 4
    attribute: m_LocalPosition.y
    path: 
    classID: 4
    script: {fileID: 0}
  - curve:
      serializedVersion: 2
      m_Curve:
      - serializedVersion: 2
        time: 0
        value: 0
        inSlope: 0
        outSlope: 0
        tangentMode: 136
      - serializedVersion: 2
        time: 0.33333334
        value: 0
        inSlope: 0
        outSlope: 0
        tangentMode: 136
      - serializedVersion: 2
        time: 0.6666667
        value: 0
        inSlope: 0
        outSlope: 0
        tangentMode: 136
      - serializedVersion: 2
        time: 1
        value: 0
        inSlope: 0
        outSlope: 0
        tangentMode: 136
      - serializedVersion: 2
        time: 1.3333334
        value: 0
        inSlope: 0
        outSlope: 0
        tangentMode: 136
      m_PreInfinity: 2
      m_PostInfinity: 2
      m_RotationOrder: 4
    attribute: m_LocalPosition.z
    path: 
    classID: 4
    script: {fileID: 0}
  m_EulerEditorCurves: []
  m_HasGenericRootTransform: 1
  m_HasMotionFloatCurves: 0
  m_GenerateMotionCurves: 0
  m_Events: []
